{
  "analysisservices": {
    "dir": "../analysisservices/mgmt",
    "source": "specification/analysisservices/resource-manager/readme.md",
    "package": "com.microsoft.azure.resourcemanager.analysisservices",
    "args": "--payload-flattening-threshold=1 --tag=package-2016-05"
  },
  "apimanagement": {
    "dir": "../apimanagement/mgmt",
    "source": "specification/apimanagement/resource-manager/readme.md",
    "package": "com.microsoft.azure.resourcemanager.apimanagement",
    "args": "--payload-flattening-threshold=1 --tag=package-2018-01"
  },
  "appplatform": {
    "dir": "../appplatform/mgmt",
    "source": "specification/appplatform/resource-manager/readme.md",
    "package": "com.azure.resourcemanager.appplatform",
    "args": "--payload-flattening-threshold=1 --tag=package-2019-05-01-preview --remove-inner=TestKeys,ResourceSku,ResourceUploadDefinition,CustomDomainValidateResult,NameAvailability"
  },
  "appservice": {
    "dir": "../appservice/mgmt",
    "source": "specification/web/resource-manager/readme.md",
    "package": "com.azure.resourcemanager.appservice",
    "args": "--payload-flattening-threshold=1 --tag=package-2019-08 --add-inner=AppServiceCertificate --name-for-ungrouped-operations=ResourceProvider"
  },
  "authorization": {
    "dir": "../authorization/mgmt",
    "source": "specification/authorization/resource-manager/readme.md",
    "package": "com.azure.resourcemanager.authorization",
    "args": "--tag=package-2018-01-01-preview --payload-flattening-threshold=1"
  },
  "automation": {
    "dir": "../automation/mgmt",
    "source": "specification/automation/resource-manager/readme.md",
    "package": "com.microsoft.azure.resourcemanager.automation",
    "args": "--payload-flattening-threshold=1 --tag=package-2015-10"
  },
  "batch": {
    "dir": "../batch/mgmt",
    "source": "specification/batch/resource-manager/readme.md",
    "package": "com.microsoft.azure.resourcemanager.batch",
    "args": "--payload-flattening-threshold=1 --tag=package-2019-08"
  },
  "batchai": {
    "dir": "../batchai/mgmt",
    "source": "specification/batchai/resource-manager/readme.md",
    "package": "com.microsoft.azure.resourcemanager.batchai",
    "args": "--payload-flattening-threshold=1 --tag=package-2018-05"
  },
  "batchService": {
    "dir": "../batch/mgmt",
    "source": "specification/batch/data-plane/readme.md",
    "package": "com.microsoft.azure.batch.protocol",
    "args": "--payload-flattening-threshold=1 --tag=package-2016-07.3.1",
    "fluent": false
  },
  "billing": {
    "dir": "../billing/mgmt",
    "source": "specification/billing/resource-manager/readme.md",
    "package": "com.microsoft.azure.resourcemanager.billing",
    "args": "--payload-flattening-threshold=1 --tag=package-2017-04-preview"
  },
  "cdn": {
    "dir": "../cdn/mgmt",
    "source": "specification/cdn/resource-manager/readme.md",
    "package": "com.microsoft.azure.resourcemanager.cdn",
    "args": "--payload-flattening-threshold=2 --tag=package-2017-10"
  },
  "cognitiveservices": {
    "dir": "../cognitiveservices/mgmt",
    "source": "specification/cognitiveservices/resource-manager/readme.md",
    "package": "com.microsoft.azure.resourcemanager.cognitiveservices",
    "args": "--payload-flattening-threshold=1 --tag=package-2017-04"
  },
  "compute": {
    "dir": "../compute/mgmt",
    "source": "specification/compute/resource-manager/readme.md",
    "package": "com.azure.resourcemanager.compute",
    "args": "--payload-flattening-threshold=1 --tag=package-2019-12-01"
  },
  "consumption": {
    "dir": "../consumption/mgmt",
    "source": "specification/consumption/resource-manager/readme.md",
    "package": "com.microsoft.azure.resourcemanager.consumption",
    "args": "--payload-flattening-threshold=1 --tag=package-2018-01"
  },
  "containerinstance": {
    "dir": "../containerinstance/mgmt",
    "source": "specification/containerinstance/resource-manager/readme.md",
    "package": "com.azure.resourcemanager.containerinstance",
    "args": "--payload-flattening-threshold=1 --tag=package-2019-12 --remove-inner=Operation,CachedImages,Capabilities"
  },
  "containerregistry": {
    "dir": "../containerregistry/mgmt",
    "source": "specification/containerregistry/resource-manager/readme.md",
    "package": "com.azure.resourcemanager.containerregistry",
    "args": "--payload-flattening-threshold=1 --tag=package-2018-09"
  },
  "containerservice": {
    "dir": "../containerservice/mgmt",
    "source": "specification/containerservice/resource-manager/readme.md",
    "package": "com.azure.resourcemanager.containerservice",
    "args": "--payload-flattening-threshold=1 --tag=package-2019-08 --title=ContainerServiceManagementClient --description=\"Container Service Client\""
  },
  "cosmos": {
    "dir": "../cosmos/mgmt",
    "source": "specification/cosmos-db/resource-manager/readme.md",
    "package": "com.azure.resourcemanager.cosmos",
    "args": "--payload-flattening-threshold=1 --tag=package-2019-08-preview"
  },
  "customerinsights": {
    "dir": "../customerinsights/mgmt",
    "source": "specification/customer-insights/resource-manager/readme.md",
    "package": "com.microsoft.azure.resourcemanager.customerinsights",
    "args": "--payload-flattening-threshold=1 --tag=package-2017-04"
  },
  "datalake.analytics.account": {
    "dir": "../datalakeanalytics/mgmt",
    "source": "specification/datalake-analytics/resource-manager/readme.md",
    "package": "com.microsoft.azure.resourcemanager.datalake.analytics",
    "args": "--payload-flattening-threshold=2 --tag=package-2016-11",
    "fluent": false
  },
  "datalake.analytics.catalog": {
    "dir": "../datalakeanalytics/mgmt",
    "source": "specification/datalake-analytics/data-plane/readme.md",
    "package": "com.microsoft.azure.resourcemanager.datalake.analytics",
    "args": "--payload-flattening-threshold=2 --tag=package-catalog-2016-11",
    "fluent": false
  },
  "datalake.analytics.job": {
    "dir": "../datalakeanalytics/mgmt",
    "source": "specification/datalake-analytics/data-plane/readme.md",
    "package": "com.microsoft.azure.resourcemanager.datalake.analytics",
    "args": "--payload-flattening-threshold=2 --tag=package-job-2017-09-preview",
    "fluent": false
  },
  "datalake.store.account": {
    "dir": "../datalakestore/mgmt",
    "source": "specification/datalake-store/resource-manager/readme.md",
    "package": "com.microsoft.azure.resourcemanager.datalake.store",
    "args": "--payload-flattening-threshold=2 --tag=package-2016-11",
    "fluent": false
  },
  "devtestlab": {
    "dir": "../devtestlab/mgmt",
    "source": "specification/devtestlabs/resource-manager/readme.md",
    "package": "com.microsoft.azure.resourcemanager.devtestlab",
    "args": "--payload-flattening-threshold=1 --tag=package-2016-05"
  },
  "dns": {
    "dir": "../dns/mgmt",
    "source": "specification/dns/resource-manager/readme.md",
    "package": "com.azure.resourcemanager.dns",
    "args": "--payload-flattening-threshold=1 --tag=package-2018-03-preview"
  },
  "eventhub": {
    "dir": "../eventhub/mgmt",
    "source": "specification/eventhub/resource-manager/readme.md",
    "package": "com.microsoft.azure.resourcemanager.eventhub",
    "args": "--payload-flattening-threshold=1 --tag=package-2017-04"
  },
  "features": {
    "dir": "../resources/mgmt",
    "source": "specification/resources/resource-manager/readme.md",
    "package": "com.azure.resourcemanager.resources",
    "args": "--tag=package-features-2015-12"
  },
  "graphrbac": {
    "dir": "../authorization/mgmt",
    "source": "specification/graphrbac/data-plane/readme.md",
    "package": "com.azure.resourcemanager.authorization",
    "args": "--payload-flattening-threshold=1 --tag=1.6"
  },
  "iothub": {
    "dir": "../devices/mgmt",
    "source": "specification/iothub/resource-manager/readme.md",
    "package": "com.microsoft.azure.resourcemanager.devices",
    "args": "--payload-flattening-threshold=1 --tag=package-2017-01"
  },
  "keyvault": {
    "dir": "../keyvault/mgmt",
    "source": "specification/keyvault/resource-manager/readme.md",
    "package": "com.azure.resourcemanager.keyvault",
    "args": "--payload-flattening-threshold=1 --tag=package-2018-02"
  },
  "locks": {
    "dir": "../locks/mgmt",
    "source": "specification/resources/resource-manager/readme.md",
    "package": "com.microsoft.azure.resourcemanager.locks",
    "args": "--payload-flattening-threshold=1 --tag=package-locks-2016-09"
  },
  "logic": {
    "dir": "../logic/mgmt",
    "source": "specification/logic/resource-manager/readme.md",
    "package": "com.microsoft.azure.resourcemanager.logic",
    "args": "--payload-flattening-threshold=1 --tag=package-2016-06"
  },
  "machinelearning": {
    "dir": "../machinelearning/mgmt",
    "source": "specification/machinelearning/resource-manager/readme.md",
    "package": "com.microsoft.azure.resourcemanager.machinelearning",
    "args": "--payload-flattening-threshold=1 --tag=package-webservices-2017-01"
  },
  "monitor": {
    "dir": "../monitor/mgmt",
    "source": "specification/monitor/resource-manager/readme.md",
    "package": "com.azure.resourcemanager.monitor",
    "args": "--payload-flattening-threshold=1 --tag=package-2019-06 --add-inner=AutoscaleProfile,ScaleRule,LocalizableString"
  },
  "network": {
    "dir": "../network/mgmt",
    "source": "specification/network/resource-manager/readme.md",
    "package": "com.azure.resourcemanager.network",
    "args": "--payload-flattening-threshold=1 --tag=package-2019-11 --add-inner=ApplicationGatewayIpConfiguration,ApplicationGatewayPathRule,ApplicationGatewayProbe,ApplicationGatewayRedirectConfiguration,ApplicationGatewayRequestRoutingRule,ApplicationGatewaySslCertificate,ApplicationGatewayUrlPathMap,ApplicationGatewayAuthenticationCertificate,VirtualNetworkGatewayIpConfiguration,ConnectionMonitor,PacketCapture"
  },
  "notificationhubs": {
    "dir": "../notificationhubs/mgmt",
    "source": "specification/notificationhubs/resource-manager/readme.md",
    "package": "com.microsoft.azure.resourcemanager.notificationhubs",
    "args": "--payload-flattening-threshold=1 --tag=package-2017-04"
  },
  "policy": {
    "dir": "../resources/mgmt",
    "source": "specification/resources/resource-manager/readme.md",
    "package": "com.azure.resourcemanager.resources",
    "args": "--payload-flattening-threshold=1 --tag=package-policy-2019-09"	
  },
  "powerbi": {
    "dir": "../powerbi/mgmt",
    "source": "specification/powerbiembedded/resource-manager/readme.md",
    "package": "com.microsoft.azure.resourcemanager.powerbi",
    "args": "--payload-flattening-threshold=1 --tag=package-2016-01"
  },
  "recoveryservices": {
    "dir": "../recoveryservices/mgmt",
    "source": "specification/recoveryservices/resource-manager/readme.md",
    "package": "com.microsoft.azure.resourcemanager.recoveryservices",
    "args": "--payload-flattening-threshold=1 --tag=package-2016-12"
  },
  "recoveryservicesbackup": {
    "dir": "../recoveryservicesbackup/mgmt",
    "source": "specification/recoveryservicesbackup/resource-manager/readme.md",
    "package": "com.microsoft.azure.resourcemanager.recoveryservicesbackup",
    "args": "--payload-flattening-threshold=1 --tag=package-2016-06"
  },
  "recoveryservicessiterecovery": {
    "dir": "../recoveryservicessiterecovery/mgmt",
    "source": "specification/recoveryservicessiterecovery/resource-manager/readme.md",
    "package": "com.microsoft.azure.resourcemanager.recoveryservicessiterecovery",
    "args": "--payload-flattening-threshold=1 --tag=package-2016-08"
  },
  "redis": {
    "dir": "../redis/mgmt",
    "source": "specification/redis/resource-manager/readme.md",
    "package": "com.microsoft.azure.resourcemanager.redis",
    "args": "--payload-flattening-threshold=1 --tag=package-2018-03"
  },
  "relay": {
    "dir": "../relay/mgmt",
    "source": "specification/relay/resource-manager/readme.md",
    "package": "com.microsoft.azure.resourcemanager.relay",
    "args": "--payload-flattening-threshold=1 --tag=package-2017-04"
  },
  "resources": {
    "dir": "../resources/mgmt",
    "source": "specification/resources/resource-manager/readme.md",
    "package": "com.azure.resourcemanager.resources",
    "args": "--tag=package-resources-2019-08 --payload-flattening-threshold=1 --add-inner=Deployment"
  },
  "scheduler": {
    "dir": "../scheduler/mgmt",
    "source": "specification/scheduler/resource-manager/readme.md",
    "package": "com.microsoft.azure.resourcemanager.scheduler",
    "args": "--payload-flattening-threshold=1 --tag=package-2016-03"
  },
  "search": {
    "dir": "../search/mgmt",
    "source": "specification/search/resource-manager/readme.md",
    "package": "com.microsoft.azure.resourcemanager.search",
    "args": "--payload-flattening-threshold=1 --tag=package-2015-08"
  },
  "servermanagement": {
    "dir": "../servermanagement/mgmt",
    "source": "specification/servermanagement/resource-manager/readme.md",
    "package": "com.microsoft.azure.resourcemanager.servermanagement",
    "args": "--payload-flattening-threshold=1 --tag=package-2016-07-preview"
  },
  "servicebus": {
    "dir": "../servicebus/mgmt",
    "source": "specification/servicebus/resource-manager/readme.md",
    "package": "com.microsoft.azure.resourcemanager.servicebus",
    "args": "--payload-flattening-threshold=1 --tag=package-2015-08"
  },
  "servicefabric": {
    "dir": "../servicefabric/mgmt",
    "source": "specification/servicefabric/resource-manager/readme.md",
    "package": "com.microsoft.azure.resourcemanager.servicefabric",
    "args": "--payload-flattening-threshold=1 --tag=package-2016-09"
  },
  "sql": {
    "dir": "../sql/mgmt",
    "source": "specification/sql/resource-manager/readme.md",
    "package": "com.azure.resourcemanager.sql",
    "args": "--payload-flattening-threshold=1 --tag=package-composite-v3"
  },
  "storage": {
    "dir": "../storage/mgmt",
    "source": "specification/storage/resource-manager/readme.md",
    "package": "com.azure.resourcemanager.storage",
    "args": "--payload-flattening-threshold=2 --tag=package-2019-06"
  },
  "storsimple8000series": {
    "dir": "../storsimple8000series/mgmt",
    "source": "specification/storsimple8000series/resource-manager/readme.md",
    "package": "com.microsoft.azure.resourcemanager.storsimple8000series",
    "args": "--payload-flattening-threshold=1 --tag=package-2017-06"
  },
  "streamanalytics": {
    "dir": "../streamanalytics/mgmt",
    "source": "specification/streamanalytics/resource-manager/readme.md",
    "package": "com.microsoft.azure.resourcemanager.streamanalytics",
    "args": "--payload-flattening-threshold=1 --tag=package-2016-03"
  },
  "subscriptions": {
    "dir": "../resources/mgmt",
    "source": "specification/resources/resource-manager/readme.md",
    "package": "com.azure.resourcemanager.resources",
    "args": "--tag=package-subscriptions-2020-01"
  },
  "trafficmanager": {
    "dir": "../trafficmanager/mgmt",
    "source": "specification/trafficmanager/resource-manager/readme.md",
    "package": "com.microsoft.azure.resourcemanager.trafficmanager",
    "args": "--payload-flattening-threshold=1 --tag=package-2018-04"
  },
  "msi": {
    "dir": "../managedserviceidentity/mgmt",
    "source": "specification/msi/resource-manager/readme.md",
    "package": "com.azure.resourcemanager.msi",
    "args": "--payload-flattening-threshold=1 --tag=package-2018-11-30 --add-client-flatten=Identity"
  }
}
